[gd_resource type="StyleBoxFlat" format=2]

[resource]
bg_color = Color( 0.870588, 0.858824, 0.172549, 1 )
border_width_left = 4
border_width_top = 4
border_width_right = 4
border_width_bottom = 4
border_color = Color( 0.46, 0.453867, 0.092, 1 )
border_blend = true
corner_radius_top_left = 4
corner_radius_top_right = 4
corner_radius_bottom_right = 4
corner_radius_bottom_left = 4
shadow_size = 1
