[gd_resource type="StyleBoxFlat" format=2]

[resource]
bg_color = Color( 1, 0.890196, 0.568627, 1 )
border_width_left = 20
border_width_top = 20
border_width_right = 20
border_width_bottom = 20
border_color = Color( 0.88, 0.7854, 0.5016, 1 )
border_blend = true
corner_radius_top_left = 5
corner_radius_top_right = 5
corner_radius_bottom_right = 5
corner_radius_bottom_left = 5
corner_detail = 5
shadow_color = Color( 0.7, 0.431667, 0, 0.666667 )
shadow_size = 1
