[gd_scene load_steps=4 format=2]

[ext_resource path="res://Common/Nodes/EventInfo/LblEventInfo.cs" type="Script" id=1]
[ext_resource path="res://Common/UI/Fonts/FntMenuMed.tres" type="DynamicFont" id=2]

[sub_resource type="Animation" id=1]
resource_name = "FadeInOut"
length = 6.0
tracks/0/type = "value"
tracks/0/path = NodePath(".:modulate")
tracks/0/interp = 1
tracks/0/loop_wrap = true
tracks/0/imported = false
tracks/0/enabled = true
tracks/0/keys = {
"times": PoolRealArray( 0, 0.9, 6 ),
"transitions": PoolRealArray( 1, 0.34151, 1 ),
"update": 0,
"values": [ Color( 1, 1, 1, 0 ), Color( 1, 1, 1, 1 ), Color( 1, 1, 1, 0 ) ]
}
tracks/1/type = "value"
tracks/1/path = NodePath(".:rect_position")
tracks/1/interp = 1
tracks/1/loop_wrap = true
tracks/1/imported = false
tracks/1/enabled = true
tracks/1/keys = {
"times": PoolRealArray( 0, 6 ),
"transitions": PoolRealArray( 2.21914, 1 ),
"update": 0,
"values": [ Vector2( 0, 0 ), Vector2( 0, -480 ) ]
}

[node name="LblEventInfo" type="Label"]
modulate = Color( 1, 1, 1, 0 )
anchor_right = 1.0
anchor_bottom = 1.0
margin_bottom = 2.0
custom_fonts/font = ExtResource( 2 )
text = "test
"
align = 1
valign = 2
script = ExtResource( 1 )
__meta__ = {
"_edit_use_anchors_": false
}

[node name="Anim" type="AnimationPlayer" parent="."]
anims/FadeInOut = SubResource( 1 )
[connection signal="animation_finished" from="Anim" to="." method="OnAnimAnimationFinished"]
