{
  "frames": [
    {
      "filename": "HOST 500PX BACK_COLOUR 5_0001.png",
      "frame": {
        "x": 20,
        "y": 20,
        "w": 500,
        "h": 500
      },
      "rotated": false,
      "trimmed": false,
      "spriteSourceSize": {
        "x": 0,
        "y": 0,
        "w": 500,
        "h": 500
      },
      "sourceSize": {
        "w": 500,
        "h": 500
      },
      "pivot": {
        "x": 0.5,
        "y": 0.5
      }
    },
    {
      "filename": "HOST 500PX BACK_COLOUR 5_0002.png",
      "frame": {
        "x": 560,
        "y": 20,
        "w": 500,
        "h": 500
      },
      "rotated": false,
      "trimmed": false,
      "spriteSourceSize": {
        "x": 0,
        "y": 0,
        "w": 500,
        "h": 500
      },
      "sourceSize": {
        "w": 500,
        "h": 500
      },
      "pivot": {
        "x": 0.5,
        "y": 0.5
      }
    },
    {
      "filename": "HOST 500PX BACK_COLOUR 5_0003.png",
      "frame": {
        "x": 1100,
        "y": 20,
        "w": 500,
        "h": 500
      },
      "rotated": false,
      "trimmed": false,
      "spriteSourceSize": {
        "x": 0,
        "y": 0,
        "w": 500,
        "h": 500
      },
      "sourceSize": {
        "w": 500,
        "h": 500
      },
      "pivot": {
        "x": 0.5,
        "y": 0.5
      }
    },
    {
      "filename": "HOST 500PX BACK_COLOUR 5_0004.png",
      "frame": {
        "x": 1640,
        "y": 20,
        "w": 500,
        "h": 500
      },
      "rotated": false,
      "trimmed": false,
      "spriteSourceSize": {
        "x": 0,
        "y": 0,
        "w": 500,
        "h": 500
      },
      "sourceSize": {
        "w": 500,
        "h": 500
      },
      "pivot": {
        "x": 0.5,
        "y": 0.5
      }
    },
    {
      "filename": "HOST 500PX BACK_COLOUR 5_0005.png",
      "frame": {
        "x": 2180,
        "y": 20,
        "w": 500,
        "h": 500
      },
      "rotated": false,
      "trimmed": false,
      "spriteSourceSize": {
        "x": 0,
        "y": 0,
        "w": 500,
        "h": 500
      },
      "sourceSize": {
        "w": 500,
        "h": 500
      },
      "pivot": {
        "x": 0.5,
        "y": 0.5
      }
    },
    {
      "filename": "HOST 500PX BACK_COLOUR 5_0006.png",
      "frame": {
        "x": 2720,
        "y": 20,
        "w": 500,
        "h": 500
      },
      "rotated": false,
      "trimmed": false,
      "spriteSourceSize": {
        "x": 0,
        "y": 0,
        "w": 500,
        "h": 500
      },
      "sourceSize": {
        "w": 500,
        "h": 500
      },
      "pivot": {
        "x": 0.5,
        "y": 0.5
      }
    },
    {
      "filename": "HOST 500PX FRONT_COLOUR 50000.png",
      "frame": {
        "x": 3260,
        "y": 20,
        "w": 500,
        "h": 500
      },
      "rotated": false,
      "trimmed": false,
      "spriteSourceSize": {
        "x": 0,
        "y": 0,
        "w": 500,
        "h": 500
      },
      "sourceSize": {
        "w": 500,
        "h": 500
      },
      "pivot": {
        "x": 0.5,
        "y": 0.5
      }
    },
    {
      "filename": "HOST 500PX FRONT_COLOUR 50001.png",
      "frame": {
        "x": 3800,
        "y": 20,
        "w": 500,
        "h": 500
      },
      "rotated": false,
      "trimmed": false,
      "spriteSourceSize": {
        "x": 0,
        "y": 0,
        "w": 500,
        "h": 500
      },
      "sourceSize": {
        "w": 500,
        "h": 500
      },
      "pivot": {
        "x": 0.5,
        "y": 0.5
      }
    },
    {
      "filename": "HOST 500PX FRONT_COLOUR 50002.png",
      "frame": {
        "x": 4340,
        "y": 20,
        "w": 500,
        "h": 500
      },
      "rotated": false,
      "trimmed": false,
      "spriteSourceSize": {
        "x": 0,
        "y": 0,
        "w": 500,
        "h": 500
      },
      "sourceSize": {
        "w": 500,
        "h": 500
      },
      "pivot": {
        "x": 0.5,
        "y": 0.5
      }
    },
    {
      "filename": "HOST 500PX FRONT_COLOUR 50003.png",
      "frame": {
        "x": 20,
        "y": 560,
        "w": 500,
        "h": 500
      },
      "rotated": false,
      "trimmed": false,
      "spriteSourceSize": {
        "x": 0,
        "y": 0,
        "w": 500,
        "h": 500
      },
      "sourceSize": {
        "w": 500,
        "h": 500
      },
      "pivot": {
        "x": 0.5,
        "y": 0.5
      }
    },
    {
      "filename": "HOST 500PX FRONT_COLOUR 50004.png",
      "frame": {
        "x": 560,
        "y": 560,
        "w": 500,
        "h": 500
      },
      "rotated": false,
      "trimmed": false,
      "spriteSourceSize": {
        "x": 0,
        "y": 0,
        "w": 500,
        "h": 500
      },
      "sourceSize": {
        "w": 500,
        "h": 500
      },
      "pivot": {
        "x": 0.5,
        "y": 0.5
      }
    },
    {
      "filename": "HOST 500PX FRONT_COLOUR 50005.png",
      "frame": {
        "x": 1100,
        "y": 560,
        "w": 500,
        "h": 500
      },
      "rotated": false,
      "trimmed": false,
      "spriteSourceSize": {
        "x": 0,
        "y": 0,
        "w": 500,
        "h": 500
      },
      "sourceSize": {
        "w": 500,
        "h": 500
      },
      "pivot": {
        "x": 0.5,
        "y": 0.5
      }
    },
    {
      "filename": "HOST 500PX SIDE_COLOUR 5_0001.png",
      "frame": {
        "x": 1640,
        "y": 560,
        "w": 500,
        "h": 500
      },
      "rotated": false,
      "trimmed": false,
      "spriteSourceSize": {
        "x": 0,
        "y": 0,
        "w": 500,
        "h": 500
      },
      "sourceSize": {
        "w": 500,
        "h": 500
      },
      "pivot": {
        "x": 0.5,
        "y": 0.5
      }
    },
    {
      "filename": "HOST 500PX SIDE_COLOUR 5_0002.png",
      "frame": {
        "x": 2180,
        "y": 560,
        "w": 500,
        "h": 500
      },
      "rotated": false,
      "trimmed": false,
      "spriteSourceSize": {
        "x": 0,
        "y": 0,
        "w": 500,
        "h": 500
      },
      "sourceSize": {
        "w": 500,
        "h": 500
      },
      "pivot": {
        "x": 0.5,
        "y": 0.5
      }
    },
    {
      "filename": "HOST 500PX SIDE_COLOUR 5_0003.png",
      "frame": {
        "x": 2720,
        "y": 560,
        "w": 500,
        "h": 500
      },
      "rotated": false,
      "trimmed": false,
      "spriteSourceSize": {
        "x": 0,
        "y": 0,
        "w": 500,
        "h": 500
      },
      "sourceSize": {
        "w": 500,
        "h": 500
      },
      "pivot": {
        "x": 0.5,
        "y": 0.5
      }
    },
    {
      "filename": "HOST 500PX SIDE_COLOUR 5_0004.png",
      "frame": {
        "x": 3260,
        "y": 560,
        "w": 500,
        "h": 500
      },
      "rotated": false,
      "trimmed": false,
      "spriteSourceSize": {
        "x": 0,
        "y": 0,
        "w": 500,
        "h": 500
      },
      "sourceSize": {
        "w": 500,
        "h": 500
      },
      "pivot": {
        "x": 0.5,
        "y": 0.5
      }
    },
    {
      "filename": "HOST 500PX SIDE_COLOUR 5_0005.png",
      "frame": {
        "x": 3800,
        "y": 560,
        "w": 500,
        "h": 500
      },
      "rotated": false,
      "trimmed": false,
      "spriteSourceSize": {
        "x": 0,
        "y": 0,
        "w": 500,
        "h": 500
      },
      "sourceSize": {
        "w": 500,
        "h": 500
      },
      "pivot": {
        "x": 0.5,
        "y": 0.5
      }
    },
    {
      "filename": "HOST 500PX SIDE_COLOUR 5_0006.png",
      "frame": {
        "x": 4340,
        "y": 560,
        "w": 500,
        "h": 500
      },
      "rotated": false,
      "trimmed": false,
      "spriteSourceSize": {
        "x": 0,
        "y": 0,
        "w": 500,
        "h": 500
      },
      "sourceSize": {
        "w": 500,
        "h": 500
      },
      "pivot": {
        "x": 0.5,
        "y": 0.5
      }
    }
  ],
  "meta": {
    "app": "http://free-tex-packer.com",
    "version": "0.6.6",
    "image": "HOST_5 150121.png",
    "format": "RGBA8888",
    "size": {
      "w": 4860,
      "h": 1080
    },
    "scale": 1
  }
}