[gd_scene load_steps=3 format=2]

[ext_resource path="res://Interface/MiniMap/HostMarker.png" type="Texture" id=1]

[sub_resource type="Animation" id=1]
resource_name = "Default"
loop = true
tracks/0/type = "value"
tracks/0/path = NodePath(".:modulate")
tracks/0/interp = 1
tracks/0/loop_wrap = true
tracks/0/imported = false
tracks/0/enabled = true
tracks/0/keys = {
"times": PoolRealArray( 0, 0.3, 0.5, 0.7, 1 ),
"transitions": PoolRealArray( 1, 1, 1, 1, 1 ),
"update": 0,
"values": [ Color( 1, 1, 1, 1 ), Color( 1, 1, 1, 1 ), Color( 10, 10, 10, 1 ), Color( 1, 1, 1, 1 ), Color( 1, 1, 1, 1 ) ]
}

[node name="HostMarker" type="Sprite"]
visible = false
position = Vector2( 68, 68 )
scale = Vector2( 0.2, 0.2 )
texture = ExtResource( 1 )
region_rect = Rect2( 5.37162, 0.163098, 23.4973, 32.3088 )

[node name="AnimationPlayer" type="AnimationPlayer" parent="."]
autoplay = "Default"
anims/Default = SubResource( 1 )
