[gd_scene load_steps=2 format=2]

[ext_resource path="res://Interface/MiniMap/ObstacleMarker.png" type="Texture" id=1]

[node name="ObstacleMarker" type="Sprite"]
visible = false
position = Vector2( 68, 68 )
scale = Vector2( 0.2, 0.2 )
texture = ExtResource( 1 )
