[gd_scene load_steps=3 format=2]

[ext_resource path="res://Common/Nodes/FloatScoreLabel/LblFloatScore.cs" type="Script" id=1]
[ext_resource path="res://Interface/Fonts/SayDo/SayDo24Thin.tres" type="DynamicFont" id=2]

[node name="LblFloatScore" type="Label"]
margin_bottom = 23.0
custom_fonts/font = ExtResource( 2 )
align = 1
script = ExtResource( 1 )
__meta__ = {
"_edit_use_anchors_": false
}
_fadeSpeed = 0.8
