[gd_resource type="StyleBoxFlat" format=2]

[resource]
content_margin_left = 8.0
content_margin_right = 8.0
content_margin_top = 4.0
content_margin_bottom = 0.0
bg_color = Color( 0.466667, 0.447059, 0.486275, 1 )
border_width_left = 3
border_width_top = 2
border_width_right = 2
border_width_bottom = 3
border_color = Color( 0.384314, 0.384314, 0.384314, 1 )
border_blend = true
corner_radius_top_left = 4
corner_radius_top_right = 4
corner_radius_bottom_right = 4
corner_radius_bottom_left = 4
shadow_color = Color( 0.172549, 0.188235, 0.360784, 0.6 )
shadow_size = 2
