[gd_resource type="StyleBoxFlat" format=2]

[resource]
bg_color = Color( 0.486275, 0.0823529, 1, 0.796078 )
border_width_left = 20
border_width_top = 20
border_width_right = 20
border_width_bottom = 20
border_color = Color( 0.357333, 0, 0.67, 1 )
border_blend = true
corner_radius_top_left = 20
corner_radius_top_right = 20
corner_radius_bottom_right = 20
corner_radius_bottom_left = 20
shadow_color = Color( 0.0696, 0.012, 0.12, 0.65098 )
shadow_size = 1
