[gd_resource type="StyleBoxFlat" format=2]

[resource]
bg_color = Color( 0.580392, 0.760784, 1, 1 )
border_width_left = 4
border_width_top = 4
border_width_right = 4
border_width_bottom = 4
border_color = Color( 0.1872, 0.342507, 0.52, 0.647059 )
border_blend = true
corner_radius_top_left = 4
corner_radius_top_right = 4
corner_radius_bottom_right = 4
corner_radius_bottom_left = 4
shadow_color = Color( 0.0980392, 0.0901961, 0.101961, 0.203922 )
shadow_size = 1
