[gd_resource type="StyleBoxFlat" format=2]

[resource]
bg_color = Color( 0, 1, 0.117647, 1 )
border_width_left = 4
border_width_top = 4
border_width_right = 4
border_width_bottom = 4
border_color = Color( 0.156863, 0.439216, 0.0509804, 1 )
border_blend = true
corner_radius_top_left = 4
corner_radius_top_right = 4
corner_radius_bottom_right = 4
corner_radius_bottom_left = 4
shadow_color = Color( 0.0980392, 0.0901961, 0.101961, 0.203922 )
shadow_size = 1
