[gd_scene load_steps=2 format=2]

[ext_resource path="res://Common/Nodes/Camera/Cam2DRTS.cs" type="Script" id=1]

[node name="Cam2DRTS" type="Camera2D"]
drag_margin_h_enabled = false
drag_margin_v_enabled = false
script = ExtResource( 1 )

